…
* Can be used in combination with other function to allow for group-specific data manipulations


========================================================
**Example**

```r
ispcrime %>%
  group_by(year)
```

```
# A tibble: 510 x 12
# Groups:   year [5]
    year county violentCrime murder  rape robbery aggAssault propertyCrime
   <int> <fct>         <int>  <int> <int>   <int>      <int>         <int>
 1  2011 Adams           218      0    37      15        166          1555
 2  2011 Alexa~          119      0    14       4        101           290
 3  2011 Bond              6      1     0       0          5           211
 4  2011 Boone            59      0    24       8         27           733
 5  2011 Brown             7      0     1       0          6            38
 6  2011 Bureau           42      0     4       3         35           505
 7  2011 Calho~           13      0     0       0         13            56
 8  2011 Carro~            8      0     1       0          7           206
 9  2011 Cass             12      0     1       0         11           119
10  2011 Champ~         1210      5   127     208        870          5332
# ... with 500 more rows, and 4 more variables: burglary <int>,
#   larcenyTft <int>, MVTft <int>, arson <int>
```
…
========================================================
**Example 2**

```r
ispcrime %>%
  group_by(county) %>%
  summarise(annualAvgCrime = sum(violentCrime, propertyCrime, na.rm = TRUE) / n()) %>%
  arrange(desc(annualAvgCrime))
```

```
# A tibble: 102 x 2
   county    annualAvgCrime
   <fct>              <dbl>
 1 Cook              182818
 2 Du Page            14316
 3 Lake               12779
 4 Winnebago          12275
 5 Will               11078
 6 St. Clair           9262
 7 Sangamon            8876
 8 Kane                8332
 9 Peoria              7229
10 Champaign           6567
# ... with 92 more rows
```
…
