…
========================================================

```r
# get annual average count of violent crime by county
ispcrime_tbl %>%
  group_by(county) %>%
  summarise(annualAvgCrime = sum(violentCrime, propertyCrime, na.rm = TRUE) / 5)
```

```
# A tibble: 102 x 2
   county    annualAvgCrime
   <fct>              <dbl>
 1 Adams             1724  
 2 Alexander          385  
 3 Bond               190  
 4 Boone              426  
 5 Brown               39.0
 6 Bureau             480  
 7 Calhoun             13.8
 8 Carroll            196  
 9 Cass               109  
10 Champaign         6567  
# ... with 92 more rows
```
…
