R Workshop R&A Meeting Presentation
…
In other words, R is a powerfully versatile tool. Many who have not used R think that it is just another statistical software. That is not true at all. R is a programming language with a fast-growing ecosystem of diverse packages and applications, which enables its users to do wonders–literally.

For the next few minutes, I would like to quickly showcase what R is capable of.

Data manipulation

Here, we will see how some basic data manipulation and analysis can be done using R.

Code 1

# peak at the first rows of the data
ispcrime_tbl

## # A tibble: 510 x 12
##     year county violentCrime murder  rape robbery aggAssault propertyCrime
##    <int> <fct>         <int>  <int> <int>   <int>      <int>         <int>
##  1  2011 Adams           218      0    37      15        166          1555
##  2  2011 Alexa~          119      0    14       4        101           290
##  3  2011 Bond              6      1     0       0          5           211
##  4  2011 Boone            59      0    24       8         27           733
##  5  2011 Brown             7      0     1       0          6            38
##  6  2011 Bureau           42      0     4       3         35           505
##  7  2011 Calho~           13      0     0       0         13            56
##  8  2011 Carro~            8      0     1       0          7           206
##  9  2011 Cass             12      0     1       0         11           119
## 10  2011 Champ~         1210      5   127     208        870          5332
## # ... with 500 more rows, and 4 more variables: burglary <int>,
## #   larcenyTft <int>, MVTft <int>, arson <int>
…
Well, here is the answer. Notice how similar the code looks to the previous case with only two minor changes. This shows the power of writing code for data analysis. You can take your earlier work and tweak it just a little to answer a new question.

Code 4

# get annual average crime count by county
ispcrime_tbl %>%
  group_by(county) %>%
  summarise(annualAvgCrime = sum(violentCrime, propertyCrime, na.rm = TRUE) / n())

## # A tibble: 102 x 2
##    county    annualAvgCrime
##    <fct>              <dbl>
##  1 Adams             1724  
##  2 Alexander          385  
##  3 Bond               190  
##  4 Boone              426  
##  5 Brown               39.0
##  6 Bureau             480  
##  7 Calhoun             13.8
##  8 Carroll            196  
##  9 Cass               109  
## 10 Champaign         6567  
## # ... with 92 more rows

Let’s now try aggregating data. Our new question is: what is the annual average of the crime count per county? With only a few line of code, we get the answer.

Now, suppose we want to sort the result by the average count?

# sort by average crime count? 
ispcrime_tbl %>%
  group_by(county) %>%
  summarise(annualAvgCrime = sum(violentCrime, propertyCrime, na.rm = TRUE) / n()) %>%
  arrange(desc(annualAvgCrime))

## # A tibble: 102 x 2
##    county    annualAvgCrime
##    <fct>              <dbl>
##  1 Cook              182818
##  2 Du Page            14316
##  3 Lake               12779
##  4 Winnebago          12275
##  5 Will               11078
##  6 St. Clair           9262
##  7 Sangamon            8876
##  8 Kane                8332
##  9 Peoria              7229
## 10 Champaign           6567
## # ... with 92 more rows
…
